{
  "stats": {
    "suites": 2,
    "tests": 5,
    "passes": 4,
    "pending": 0,
    "failures": 1,
    "start": "2020-08-06T08:48:21.932Z",
    "end": "2020-08-06T08:48:53.943Z",
    "duration": 32011,
    "testsRegistered": 5,
    "passPercent": 80,
    "pendingPercent": 0,
    "other": 0,
    "hasOther": false,
    "skipped": 0,
    "hasSkipped": false,
    "passPercentClass": "success",
    "pendingPercentClass": "danger"
  },
  "suites": {
    "uuid": "6a4f330c-2b56-406e-8228-6d3ac0141753",
    "title": "",
    "fullFile": "",
    "file": "",
    "beforeHooks": [],
    "afterHooks": [],
    "tests": [],
    "suites": [
      {
        "uuid": "529b98b0-ac24-4ff5-bac2-64b38290695c",
        "title": "Ottopay Login",
        "fullFile": "/Users/tio/gitlab/qa-automation/ottopay/api/test/login-test.js",
        "file": "/api/test/login-test.js",
        "beforeHooks": [],
        "afterHooks": [],
        "tests": [
          {
            "title": "@get As a User, I want to be able to Login to the apps",
            "fullTitle": "Ottopay Login @get As a User, I want to be able to Login to the apps",
            "timedOut": false,
            "duration": 12459,
            "state": "passed",
            "speed": "slow",
            "pass": true,
            "fail": false,
            "pending": false,
            "code": "const response = await page.loginop(deviceid, phone, pin,version);\nassert(response.status).to.equal(200);\nassert(response.body.meta.code).to.equal(200);",
            "err": {},
            "isRoot": false,
            "uuid": "9104b5e1-0cf2-4511-bb9b-01c1ad410c31",
            "isHook": false,
            "skipped": false
          },
          {
            "title": "@get As a user, I want to able input OTP when Login for the first time",
            "fullTitle": "Ottopay Login @get As a user, I want to able input OTP when Login for the first time",
            "timedOut": false,
            "duration": 8783,
            "state": "failed",
            "pass": false,
            "fail": true,
            "pending": false,
            "code": "const otp_code = readlineSync.question('Input Your OTP CODE   : ', otp => {\n    console.log(`Your OTP CODE ${otp}!`);\n    readline.close();\n  });\n    const response = await page.loginotpop(deviceid, phone,version,otp_code);\n    assert(response.status).to.equal(200);\n    assert(response.body.meta.code).to.equal(200);",
            "err": {
              "message": "AssertionError: expected 400 to equal 200",
              "estack": "AssertionError: expected 400 to equal 200\n    at Context.<anonymous> (api/test/login-test.js:53:40)\n    at processTicksAndRejections (internal/process/task_queues.js:93:5)",
              "diff": "- 400\n+ 200\n"
            },
            "isRoot": false,
            "uuid": "4ecf8132-895d-4ea9-aca4-bc920360266e",
            "isHook": false,
            "skipped": false
          }
        ],
        "suites": [],
        "passes": [
          "9104b5e1-0cf2-4511-bb9b-01c1ad410c31"
        ],
        "failures": [
          "4ecf8132-895d-4ea9-aca4-bc920360266e"
        ],
        "pending": [],
        "skipped": [],
        "duration": 21242,
        "root": false,
        "rootEmpty": false,
        "_timeout": 180000
      },
      {
        "uuid": "36844758-b596-420b-83b6-44ce6aa874ca",
        "title": "Merchant Info ",
        "fullFile": "/Users/tio/gitlab/qa-automation/ottopay/api/test/merchant-info-test.js",
        "file": "/api/test/merchant-info-test.js",
        "beforeHooks": [
          {
            "title": "\"before all\" hook",
            "fullTitle": "Merchant Info  \"before all\" hook",
            "timedOut": false,
            "duration": 10346,
            "pass": false,
            "fail": false,
            "pending": false,
            "code": "resp = await page.loginop(deviceid, phone, pin, version);\nthis.auth = resp.body.data.access_token;\nconsole.log(\"merchantauth = \" + resp.body.data.access_token );",
            "err": {},
            "isRoot": false,
            "uuid": "6fc3cdfe-cd05-4236-bece-b3d1a683f718",
            "isHook": true,
            "skipped": false
          }
        ],
        "afterHooks": [],
        "tests": [
          {
            "title": "@get As a User, I want to be able to get Merchant Info",
            "fullTitle": "Merchant Info  @get As a User, I want to be able to get Merchant Info",
            "timedOut": false,
            "duration": 152,
            "state": "passed",
            "speed": "slow",
            "pass": true,
            "fail": false,
            "pending": false,
            "code": "const auth = this.auth;\nresponse = await merchant.merchantinfo(deviceid,auth);\nassert(response.status).to.equal(200);\nassert(response.body.meta.code).to.equal(200);",
            "err": {},
            "isRoot": false,
            "uuid": "baaafa2c-8fb4-4d4f-8848-105e96d42c0e",
            "isHook": false,
            "skipped": false
          },
          {
            "title": "@get As a User, I want to be able to get Merchant Feature",
            "fullTitle": "Merchant Info  @get As a User, I want to be able to get Merchant Feature",
            "timedOut": false,
            "duration": 122,
            "state": "passed",
            "speed": "slow",
            "pass": true,
            "fail": false,
            "pending": false,
            "code": "const auth = this.auth;\nresponse = await merchant.merchantfeature(deviceid,auth);\nassert(response.status).to.equal(200);\nassert(response.body.meta.code).to.equal(200);",
            "err": {},
            "isRoot": false,
            "uuid": "908a1bed-8b91-491b-81b4-84965e888a86",
            "isHook": false,
            "skipped": false
          },
          {
            "title": "@get As a User, I want to be able to get Merchant theme",
            "fullTitle": "Merchant Info  @get As a User, I want to be able to get Merchant theme",
            "timedOut": false,
            "duration": 126,
            "state": "passed",
            "speed": "slow",
            "pass": true,
            "fail": false,
            "pending": false,
            "code": "const auth = this.auth;\nresponse = await merchant.merchanttheme(deviceid,auth);\nassert(response.status).to.equal(200);\nassert(response.body.meta.code).to.equal(200);",
            "err": {},
            "isRoot": false,
            "uuid": "58525a4f-2888-44c2-b634-6994bcaa6278",
            "isHook": false,
            "skipped": false
          }
        ],
        "suites": [],
        "passes": [
          "baaafa2c-8fb4-4d4f-8848-105e96d42c0e",
          "908a1bed-8b91-491b-81b4-84965e888a86",
          "58525a4f-2888-44c2-b634-6994bcaa6278"
        ],
        "failures": [],
        "pending": [],
        "skipped": [],
        "duration": 400,
        "root": false,
        "rootEmpty": false,
        "_timeout": 180000
      }
    ],
    "passes": [],
    "failures": [],
    "pending": [],
    "skipped": [],
    "duration": 0,
    "root": true,
    "rootEmpty": true,
    "_timeout": 180000
  },
  "copyrightYear": 2020
}