{
  "total" : 2,
  "items" : [ {
    "uid" : "691e6640acd4b4a013735bc00e847fd1",
    "name" : "Ottopay Login",
    "statistic" : {
      "failed" : 1,
      "broken" : 0,
      "skipped" : 0,
      "passed" : 1,
      "unknown" : 0,
      "total" : 2
    }
  }, {
    "uid" : "e2e2ee980f63bbd917e13cd320321ff0",
    "name" : "Merchant Info ",
    "statistic" : {
      "failed" : 0,
      "broken" : 0,
      "skipped" : 0,
      "passed" : 3,
      "unknown" : 0,
      "total" : 3
    }
  } ]
}